Bootstrapping Multilevel Models in R using lmeresampler
…
???

lmeresampler provides users with easy access to a larger set of bootstrap procedures. Currently, it implements five procedures for Gaussian response models, including the parametric, residual, cases, random-effects block, and wild bootstraps. The parametric, residual, and cases bootstraps are also available for generalized linear mixed-effects models fit via `glmer`.
  
---

## JSP data

```r
library(lmeresampler)
as_tibble(jsp728) %>% print(width = 70)
```

```
## # A tibble: 728 x 9
##    mathAge11 mathAge8 gender class     school normAge11 normAge8
##        <dbl>    <dbl> <fct>  <fct>     <fct>      <dbl>    <dbl>
##  1        39       36 M      nonmanual 1         1.80     1.55  
##  2        11       19 F      manual    1        -2.29    -0.980 
##  3        32       31 F      manual    1        -0.0413   0.638 
##  4        27       23 F      nonmanual 1        -0.750   -0.460 
##  5        36       39 F      nonmanual 1         0.743    2.15  
##  6        33       25 M      manual    1         0.163   -0.182 
##  7        30       27 M      manual    1        -0.372    0.0724
##  8        17       14 M      manual    1        -1.63    -1.52  
##  9        33       30 M      manual    1         0.163    0.454 
## 10        20       19 M      manual    1        -1.40    -0.980 
## # … with 718 more rows, and 2 more variables: schoolMathAge8 <dbl>,
## #   mathAge8c <dbl>
```
…
